{
    "videos": [
      { "id": "1", "createdAt": "23-06-1994", "title": "FORREST GUMP" },
      { "id": "2", "createdAt": "10-06-1994", "title": "SKAZANI NA SHAWSHANK" },
      { "id": "3", "createdAt": "30-11-1993", "title": "LISTA SCHINDLERA" }
    ]
  }